{
  "restApiRoot": "/api",
  "host": "0.0.0.0",
  "port": 3000,
  "remoting": {
    "rest": {
      "normalizeHttpPath": false,
      "xml": false,
      "handleErrors": false
    },
    "json": {
      "strict": false,
      "limit": "50mb"
    },
    "urlencoded": {
      "extended": true,
      "limit": "50mb"
    },
    "cors": false,
    "sharedMethods": {
      "*": false,
      "create": true,
      "deleteById": true,
      "prototype.patchAttributes": true
    }
  },
  "legacyExplorer": false,
  "raven": false,
  "injectOptionsFromRemoteContext": true,
  "logoutSessionsOnSensitiveChanges": true
}
